{
  "vocab_size":5000,
  "embedding_size":128,
  "unknown_word":0,
  "min_count":5,
  "window_size":5,
  "save_root":"./",
  "word2id_name":"word2id.cpkt",
  "embedding_matrix_name":"embedding_matrix.cpkt"
}